%YAML 1.1
%TAG !u! tag:unity3d.com,2011:
--- !u!114 &11400000
MonoBehaviour:
  m_ObjectHideFlags: 0
  m_PrefabParentObject: {fileID: 0}
  m_PrefabInternal: {fileID: 0}
  m_GameObject: {fileID: 0}
  m_Enabled: 1
  m_EditorHideFlags: 0
  m_Script: {fileID: 11500000, guid: 295c8c5e4a538d74dad0d812ddbb82a9, type: 3}
  m_Name: Message1_B
  m_EditorClassIdentifier: 
  clip: {fileID: 8300000, guid: f7e06fad98dbd1347b0cc1f7cadba88b, type: 3}
  clipRev: {fileID: 8300000, guid: 0d1fee41f8c731144b061f809110a09f, type: 3}
  partNumber: 2
